{
    "datasets": [
        {
            "data": [10, 11, 12, 10, 13, 12, 14, 15, 12, 10, 15, 18, 10, 12, 11, 11, 17, 11, 10, 18, 13, 14, 15],
            "chain": [
                {
                    "tool": "EMA",
                    "params": [6]
                },
                {
                    "tool": "RSI",
                    "params": [4]
                }
            ]
        }
    ]
}
